{
    "photos": {
        "page": 1,
        "pages": 19066,
        "perpage": 20,
        "total": 381307,
        "photo": [
            {
                "id": "52081660498",
                "owner": "195236706@N02",
                "secret": "a16244671f",
                "server": "65535",
                "farm": 66,
                "title": "Background removal, Clipping path, Transparent background, White background, Object remova, Photo retouching, Drop shadow adding, Hair masking, Image resizing, Ghost mannequin effect, Color correction, eCommerce product photo editing services for Amazon,",
                "ispublic": 1,
                "isfriend": 0,
                "isfamily": 0
            },
            {
                "id": "52081882309",
                "owner": "195236706@N02",
                "secret": "1134fdc7c2",
                "server": "65535",
                "farm": 66,
                "title": "Background removal, Clipping path, Transparent background, White background, Object remova, Photo retouching, Drop shadow adding, Hair masking, Image resizing, Ghost mannequin effect, Color correction, eCommerce product photo editing services for Amazon,",
                "ispublic": 1,
                "isfriend": 0,
                "isfamily": 0
            },
            {
                "id": "52081659093",
                "owner": "195236706@N02",
                "secret": "f36ee585f8",
                "server": "65535",
                "farm": 66,
                "title": "Background removal, Clipping path, Transparent background, White background, Object removal, Photo retouching, Drop shadow adding, Hair masking, Image resizing, Ghost mannequin effect, Color correctione, Commerce product photo editing services for Amazon,",
                "ispublic": 1,
                "isfriend": 0,
                "isfamily": 0
            },
            {
                "id": "52081659073",
                "owner": "195236706@N02",
                "secret": "d18d5b1a3f",
                "server": "65535",
                "farm": 66,
                "title": "Background removal, Clipping path, Transparent background, White background, Object removal, Photo retouching, Drop shadow adding, Hair masking, Image resizing, Ghost mannequin effect, Color correctione, Commerce product photo editing services for Amazon,",
                "ispublic": 1,
                "isfriend": 0,
                "isfamily": 0
            },
            {
                "id": "52080607027",
                "owner": "190173716@N05",
                "secret": "018d937e1b",
                "server": "65535",
                "farm": 66,
                "title": "bright colours",
                "ispublic": 1,
                "isfriend": 0,
                "isfamily": 0
            },
            {
                "id": "52081874789",
                "owner": "71296413@N02",
                "secret": "025be70b6e",
                "server": "65535",
                "farm": 66,
                "title": "Distyliopsis dunnii (Hemsl.) Endress 1970 (HAMAMELIDACEAE).",
                "ispublic": 1,
                "isfriend": 0,
                "isfamily": 0
            },
            {
                "id": "52081652623",
                "owner": "71296413@N02",
                "secret": "4da8b92258",
                "server": "65535",
                "farm": 66,
                "title": "Distyliopsis dunnii (Hemsl.) Endress 1970 (HAMAMELIDACEAE).",
                "ispublic": 1,
                "isfriend": 0,
                "isfamily": 0
            },
            {
                "id": "52080601997",
                "owner": "71296413@N02",
                "secret": "4a8df9af35",
                "server": "65535",
                "farm": 66,
                "title": "Distyliopsis dunnii (Hemsl.) Endress 1970 (HAMAMELIDACEAE).",
                "ispublic": 1,
                "isfriend": 0,
                "isfamily": 0
            },
            {
                "id": "52081874724",
                "owner": "71296413@N02",
                "secret": "e7bd1663f2",
                "server": "65535",
                "farm": 66,
                "title": "Distyliopsis dunnii (Hemsl.) Endress 1970 (HAMAMELIDACEAE).",
                "ispublic": 1,
                "isfriend": 0,
                "isfamily": 0
            },
            {
                "id": "52080602007",
                "owner": "71296413@N02",
                "secret": "60a1e15e3f",
                "server": "65535",
                "farm": 66,
                "title": "Distyliopsis dunnii (Hemsl.) Endress 1970 (HAMAMELIDACEAE).",
                "ispublic": 1,
                "isfriend": 0,
                "isfamily": 0
            },
            {
                "id": "52080601982",
                "owner": "71296413@N02",
                "secret": "d244cdb70d",
                "server": "65535",
                "farm": 66,
                "title": "Distyliopsis dunnii (Hemsl.) Endress 1970 (HAMAMELIDACEAE).",
                "ispublic": 1,
                "isfriend": 0,
                "isfamily": 0
            },
            {
                "id": "52080592517",
                "owner": "190622906@N05",
                "secret": "6335f974ec",
                "server": "65535",
                "farm": 66,
                "title": "OEM STANDARD BLACK floor mats, set of 2- Smart fortwo 450",
                "ispublic": 1,
                "isfriend": 0,
                "isfamily": 0
            },
            {
                "id": "52081625691",
                "owner": "105632783@N04",
                "secret": "22874d315b",
                "server": "65535",
                "farm": 66,
                "title": "CWW GP49 #2807",
                "ispublic": 1,
                "isfriend": 0,
                "isfamily": 0
            },
            {
                "id": "52081639723",
                "owner": "69178122@N02",
                "secret": "4ed07bce3f",
                "server": "65535",
                "farm": 66,
                "title": "Barn Swallow",
                "ispublic": 1,
                "isfriend": 0,
                "isfamily": 0
            },
            {
                "id": "52081636493",
                "owner": "146843034@N02",
                "secret": "5b787daa97",
                "server": "65535",
                "farm": 66,
                "title": "Violet",
                "ispublic": 1,
                "isfriend": 0,
                "isfamily": 0
            },
            {
                "id": "52080576847",
                "owner": "67084790@N03",
                "secret": "fb647275ca",
                "server": "65535",
                "farm": 66,
                "title": "20drc0853",
                "ispublic": 1,
                "isfriend": 0,
                "isfamily": 0
            },
            {
                "id": "52081611971",
                "owner": "67084790@N03",
                "secret": "9939be9ff3",
                "server": "65535",
                "farm": 66,
                "title": "2_DSC0917",
                "ispublic": 1,
                "isfriend": 0,
                "isfamily": 0
            },
            {
                "id": "52081625858",
                "owner": "36595246@N02",
                "secret": "8059eb08fa",
                "server": "65535",
                "farm": 66,
                "title": "_DSC1715",
                "ispublic": 1,
                "isfriend": 0,
                "isfamily": 0
            },
            {
                "id": "52081599566",
                "owner": "188159153@N06",
                "secret": "c7cf1f4bce",
                "server": "65535",
                "farm": 66,
                "title": "colorful windows",
                "ispublic": 1,
                "isfriend": 0,
                "isfamily": 0
            },
            {
                "id": "52081652658",
                "owner": "71296413@N02",
                "secret": "edba54c9c5",
                "server": "65535",
                "farm": 66,
                "title": "Distyliopsis dunnii (Hemsl.) Endress 1970 (HAMAMELIDACEAE).",
                "ispublic": 1,
                "isfriend": 0,
                "isfamily": 0
            }
        ]
    },
    "stat": "ok"
}
